{
	"users": [
		{
			"id": 1,
			"date": "11.03.1987",
			"dateRegistration": "7.06.2020",
			"name": "Куклина Мария Ивановна",
			"email": "kyklina@mail.ru",
			"phone": "+79223625999",
			"distance": 5,
			"payment": 500
		},
		{
			"id": 2,
			"date": "8.05.1997",
			"dateRegistration": "17.04.2020",
			"name": "Мокрушина Галина Юрьевна",
			"email": "mokrushina@mail.ru",
			"phone": "+79881125999",
			"distance": 10,
			"payment": 300
		},
		{
			"id": 3,
			"date": "24.01.1886",
			"dateRegistration": "18.05.2020",
			"name": "Ольга Сергеевна Заводская",
			"email": "olga.zavodckaia@mail.ru",
			"phone": "+79008011000",
			"distance": 3,
			"payment": 1500
		}
	]
}